ISSS608-VAA - Take-home Exercise 1
…
# Assuming RT_new has been previously loaded and mutated to include the Quarter column

summary_table <- RT_new %>%
  group_by(Quarter, `Property Type`) %>%
  summarise(
    Total_Transactions = n(),
    Average_Price = mean(`Transacted Price ($)`, na.rm = TRUE),
    Median_Price = median(`Transacted Price ($)`, na.rm = TRUE),
    Min_Price = min(`Transacted Price ($)`, na.rm = TRUE),
    Max_Price = max(`Transacted Price ($)`, na.rm = TRUE),
    .groups = 'drop' # This will remove the grouping
  )
print(summary_table)

# A tibble: 30 × 7
   Quarter `Property Type`       Total_Transactions Average_Price Median_Price
   <chr>   <chr>                              <int>         <dbl>        <dbl>
 1 Q1 2023 Apartment                           1659      2072938.     1707000 
 2 Q1 2023 Condominium                         2166      2189488.     1608000 
 3 Q1 2023 Detached House                        62     14324795.    11550000 
 4 Q1 2023 Executive Condominium                535      1394549.     1330000 
 5 Q1 2023 Semi-Detached House                   88      5783790.     5559000 
 6 Q1 2023 Terrace House                        212      3832491.     3550000 
 7 Q1 2024 Apartment                           1852      1853613.     1668902.
 8 Q1 2024 Condominium                         1858      2002576.     1730000 
 9 Q1 2024 Detached House                        40     12378131.    10940000 
10 Q1 2024 Executive Condominium                843      1520791.     1488000 
# ℹ 20 more rows
# ℹ 2 more variables: Min_Price <dbl>, Max_Price <dbl>
…
